^C:\USERS\13044\DESKTOP\REPOSITORY\GAM-415\LIBRARY\HOF DEMO\MAIN.CPP
C:\USERS\13044\DESKTOP\REPOSITORY\GAM-415\LIBRARY\HOF DEMO\DEBUG\VC142.PDB
C:\USERS\13044\DESKTOP\REPOSITORY\GAM-415\LIBRARY\HOF DEMO\DEBUG\VC142.IDB
C:\USERS\13044\DESKTOP\REPOSITORY\GAM-415\LIBRARY\HOF DEMO\DEBUG\MAIN.OBJ
